General Interface for H2O AutoML Time Series Models — automl_reg • modeltime.h2o
…
# ---- PREDICT ----
# - IMPORTANT: New Data must have date feature

predict(model_fitted, test_tbl)

#> Converting to H2OFrame...
#> Warning: data.table cannot be used without R package bit64 version 0.9.7 or higher.  Please upgrade to take advangage of data.table speedups.
#>   |                                                                              |                                                                      |   0%  |                                                                              |======================================================================| 100%
#>   |                                                                              |                                                                      |   0%  |                                                                              |======================================================================| 100%
#> # A tibble: 84 x 1
#>      .pred
#>      <dbl>
#>  1  17763.
#>  2  29656.
#>  3  36469.
#>  4  40819.
#>  5  73133.
#>  6  81456.
#>  7 137419.
#>  8  17814.
#>  9  37874.
#> 10  37498.
#> # … with 74 more rows
…
