Getting Started with Modeltime H2O • modeltime.h2o
…
Finally, we predict on the test dataset:

predict(model_fitted, test_tbl)
#> 
  |                                                                            
  |                                                                      |   0%
  |                                                                            
  |======================================================================| 100%
#> 
  |                                                                            
  |                                                                      |   0%
  |                                                                            
  |======================================================================| 100%
#> # A tibble: 84 x 1
#>      .pred
#>      <dbl>
#>  1  18234.
#>  2  29927.
#>  3  37283.
#>  4  40706.
#>  5  73144.
#>  6  81746.
#>  7 137834.
#>  8  18100.
#>  9  39545.
#> 10  37599.
#> # … with 74 more rows
…
